Introduction â€¢ pepreporting
…
The function anlz_pepdat() summarizes the station data by bay segment. The function returns annual means for chlorophyll and secchi depth and monthly means by year for chlorophyll and secchi depth. These summaries are then used to determine if bay segment targets for water quality are met using the anlz_attain() and anlz_attainpep() function.

Below shows how to use anlz_pepdat() to summarize the data by bay segment to estimate annual and monthly means for chlorophyll and secchi depth. The output is a two-element list for the annual (ann) and monthly (mos) means by segment.

medpep <- anlz_medpep(dat)
medpep
#> $ann
#> # A tibble: 792 x 5
#>    bay_segment    yr   val est    var  
#>    <fct>       <dbl> <dbl> <chr>  <chr>
#>  1 Western      1976  9.90 lwr.ci chla 
#>  2 Western      1976 26.8  medv   chla 
#>  3 Western      1976 44.9  upr.ci chla 
#>  4 Western      1977 NA    lwr.ci chla 
#>  5 Western      1977 NA    medv   chla 
#>  6 Western      1977 NA    upr.ci chla 
#>  7 Western      1978 NA    lwr.ci chla 
#>  8 Western      1978 NA    medv   chla 
#>  9 Western      1978 NA    upr.ci chla 
#> 10 Western      1979 NA    lwr.ci chla 
#> # ... with 782 more rows
#> 
#> $mos
#> # A tibble: 3,168 x 6
#>    bay_segment    yr    mo   val est   var  
#>    <fct>       <dbl> <dbl> <dbl> <chr> <chr>
#>  1 Western      1976     1  NA   medv  chla 
#>  2 Western      1976     2  NA   medv  chla 
#>  3 Western      1976     3  NA   medv  chla 
#>  4 Western      1976     4  NA   medv  chla 
#>  5 Western      1976     5  NA   medv  chla 
#>  6 Western      1976     6  NA   medv  chla 
#>  7 Western      1976     7  30.8 medv  chla 
#>  8 Western      1976     8  40.4 medv  chla 
#>  9 Western      1976     9  16.9 medv  chla 
#> 10 Western      1976    10  NA   medv  chla 
#> # ... with 3,158 more rows

This output can then be further analyzed with anlz_attainpep() to determine if the bay segment outcomes are met in each year. The results are used by the plotting functions described below. In short, the chl_sd column indicates the categorical outcome for chlorophyll and light attenuation for each segment. The outcomes are integer values from zero to three. The relative exceedances of water quality thresholds for each segment, both in duration and magnitude, are indicated by higher integer values.

anlz_attainpep(medpep)
#> # A tibble: 132 x 4
#>    bay_segment    yr chla_sd outcome
#>    <fct>       <dbl> <chr>   <chr>  
#>  1 Western      1976 3_3     red    
#>  2 Western      1977 NA_3    <NA>   
#>  3 Western      1978 NA_2    <NA>   
#>  4 Western      1979 NA_NA   <NA>   
#>  5 Western      1980 NA_NA   <NA>   
#>  6 Western      1981 NA_3    <NA>   
#>  7 Western      1982 NA_NA   <NA>   
#>  8 Western      1983 NA_NA   <NA>   
#>  9 Western      1984 NA_NA   <NA>   
#> 10 Western      1985 NA_3    <NA>   
#> # ... with 122 more rows
…
The show_thrpep() function uses results from the anlz_medpep() function. For example, you can retrieve the values from the above plot as follows:

dat %>%
  anlz_medpep %>%
  .[['ann']] %>%
  filter(bay_segment == 'Western') %>%
  filter(var == 'chla') %>%
  filter(yr >= 1988 & yr <= 2019)
#> # A tibble: 96 x 5
#>    bay_segment    yr   val est    var  
#>    <fct>       <dbl> <dbl> <chr>  <chr>
#>  1 Western      1988  10.1 lwr.ci chla 
#>  2 Western      1988  11   medv   chla 
#>  3 Western      1988  12.4 upr.ci chla 
#>  4 Western      1989   5.4 lwr.ci chla 
#>  5 Western      1989   5.8 medv   chla 
#>  6 Western      1989   6.3 upr.ci chla 
#>  7 Western      1990   3.5 lwr.ci chla 
#>  8 Western      1990   4   medv   chla 
#>  9 Western      1990   4.7 upr.ci chla 
#> 10 Western      1991   4   lwr.ci chla 
#> # ... with 86 more rows
…
