Dissolved Oxygen • peptools
…
First, the data can be summarized from the continuous (~6 minute
observations) to daily averages using the anlz_dodlpep()
function. A user-specified threshold can be supplied to the
thr argument to summarize the data relative to a value of
interest, the default value being the acute threshold of 3 mg/L (an
alternative may be the chronic threshold of 4.8 mg/L, [1]).

# 3 mg/l is acute, 4.8 mg/l is chronic
dlysum <- anlz_dodlypep(dodat, thr = 3)
dlysum
#> # A tibble: 9,601 × 7
#>    site          Date          yr    mo do_mgl below below_cumsum
#>    <fct>         <date>     <dbl> <dbl>  <dbl> <dbl>        <dbl>
#>  1 Peconic River 2013-01-01  2013     1   11.0     0            0
#>  2 Peconic River 2013-01-02  2013     1   11.3     0            0
#>  3 Peconic River 2013-01-03  2013     1   11.6     0            0
#>  4 Peconic River 2013-01-04  2013     1   11.6     0            0
#>  5 Peconic River 2013-01-05  2013     1   11.7     0            0
#>  6 Peconic River 2013-01-06  2013     1   11.8     0            0
#>  7 Peconic River 2013-01-07  2013     1   12.0     0            0
#>  8 Peconic River 2013-01-08  2013     1   12.1     0            0
#>  9 Peconic River 2013-01-09  2013     1   12.0     0            0
#> 10 Peconic River 2013-01-10  2013     1   11.7     0            0
#> # ℹ 9,591 more rows
…
The data can also be summarized by month using the
anlz_domopep() function. Summarizing by month distills the
information into a simple format for plotting. Internally, the
anlz_domopep() function uses the
anlz_dodlypep() function to first summarize results by day,
which are then summarized by month.

mosum <- anlz_domopep(dodat, thr = 3)
mosum
#> # A tibble: 316 × 6
#>    site             yr mo    do_mgl below_ave below_maxrun
#>    <fct>         <dbl> <ord>  <dbl>     <dbl>        <dbl>
#>  1 Peconic River  2013 Jan    11.6      0                0
#>  2 Peconic River  2013 Feb    11.9      0                0
#>  3 Peconic River  2013 Mar    11.7      0                0
#>  4 Peconic River  2013 Apr     9.55     0                0
#>  5 Peconic River  2013 May     7.90     0                0
#>  6 Peconic River  2013 Jun     5.73     0.3              5
#>  7 Peconic River  2013 Jul     3.12     0.871           11
#>  8 Peconic River  2013 Aug     3.13     0.774           15
#>  9 Peconic River  2013 Sep     4.81     0.633            6
#> 10 Peconic River  2013 Oct     6.03     0.258            7
#> # ℹ 306 more rows
…
