Introduction • peptools
…
Below shows how to use anlz_pepdat() to summarize the
data by bay segment to estimate annual and monthly medians for
chlorophyll, secchi depth, and total nitrogen. The output is a
two-element list for the annual (ann) and monthly (mos) medians by
segment.

medpep <- anlz_medpep(dat)
medpep
#> $ann
#> # A tibble: 1,152 × 5
#>    bay_segment    yr   val est    var  
#>    <fct>       <dbl> <dbl> <chr>  <chr>
#>  1 1a           2021  9.35 lwr.ci chla 
#>  2 1a           2021 13.6  medv   chla 
#>  3 1a           2021 18.9  upr.ci chla 
#>  4 1a           2020  5.17 lwr.ci chla 
#>  5 1a           2020  6.74 medv   chla 
#>  6 1a           2020 10.1  upr.ci chla 
#>  7 1a           2019  4.75 lwr.ci chla 
#>  8 1a           2019  6.46 medv   chla 
#>  9 1a           2019 12.5  upr.ci chla 
#> 10 1a           2018  5.08 lwr.ci chla 
#> # ℹ 1,142 more rows
#> 
#> $mos
#> # A tibble: 4,608 × 6
#>    bay_segment    yr    mo   val est   var  
#>    <fct>       <dbl> <dbl> <dbl> <chr> <chr>
#>  1 1a           2021    12 NA    medv  chla 
#>  2 1a           2021    11 NA    medv  chla 
#>  3 1a           2021    10 NA    medv  chla 
#>  4 1a           2021     9 NA    medv  chla 
#>  5 1a           2021     8 NA    medv  chla 
#>  6 1a           2021     7 56.0  medv  chla 
#>  7 1a           2021     6 17.8  medv  chla 
#>  8 1a           2021     5  9.62 medv  chla 
#>  9 1a           2021     4  7.86 medv  chla 
#> 10 1a           2021     3 17    medv  chla 
#> # ℹ 4,598 more rows

This output can then be further analyzed with
anlz_attainpep() to determine if the bay segment outcomes
are met in each year for chlorophyll and secchi depth. The results are
used by the plotting functions described below. In short, the
chl_sd column indicates the categorical outcome for
chlorophyll and secchi for each segment. The outcomes are integer values
from zero to three. The relative exceedances of water quality thresholds
for each segment, both in duration and magnitude, are indicated by
higher integer values.

anlz_attainpep(medpep)
#> # A tibble: 128 × 4
#>    bay_segment    yr chla_sd outcome
#>    <fct>       <dbl> <chr>   <chr>  
#>  1 1a           2021 3_3     red    
#>  2 1a           2020 2_NA    NA     
#>  3 1a           2019 2_3     red    
#>  4 1a           2018 2_3     red    
#>  5 1a           2017 3_3     red    
#>  6 1a           2016 3_3     red    
#>  7 1a           2015 2_3     red    
#>  8 1a           2014 2_NA    NA     
#>  9 1a           2013 3_2     red    
#> 10 1a           2012 3_3     red    
#> # ℹ 118 more rows
…
The show_thrpep() function uses results from the
anlz_medpep() function. For example, you can retrieve the
values from the above plot as follows:

dat %>% 
  anlz_medpep %>% 
  .[['ann']] %>% 
  filter(bay_segment == '1a') %>% 
  filter(var == 'chla') %>% 
  filter(yr >= 1988 & yr <= 2021)
#> # A tibble: 96 × 5
#>    bay_segment    yr   val est    var  
#>    <fct>       <dbl> <dbl> <chr>  <chr>
#>  1 1a           2021  9.35 lwr.ci chla 
#>  2 1a           2021 13.6  medv   chla 
#>  3 1a           2021 18.9  upr.ci chla 
#>  4 1a           2020  5.17 lwr.ci chla 
#>  5 1a           2020  6.74 medv   chla 
#>  6 1a           2020 10.1  upr.ci chla 
#>  7 1a           2019  4.75 lwr.ci chla 
#>  8 1a           2019  6.46 medv   chla 
#>  9 1a           2019 12.5  upr.ci chla 
#> 10 1a           2018  5.08 lwr.ci chla 
#> # ℹ 86 more rows
…
