Beach Pathogens • peptools
…
The anlz_entpep() function estimates this exposure risk
by counting the number of instances in a year when concentrations at a
beach exceeded the threshold for each 24 hour period in the dataset. The
results show samples for number of days sampled each year
and number of exceedances for the samples. Only the 28
relevant beaches for the Peconic Estuary are returned.

anlz_entpep(entdat)
#> # A tibble: 364 × 4
#>    Name               yr samples exceedances
#>    <chr>           <dbl>   <int>       <int>
#>  1 Alberts Landing  2010       3           0
#>  2 Alberts Landing  2011       3           0
#>  3 Alberts Landing  2012       4           0
#>  4 Alberts Landing  2013       3           0
#>  5 Alberts Landing  2014       4           0
#>  6 Alberts Landing  2015       3           0
#>  7 Alberts Landing  2016       5           0
#>  8 Alberts Landing  2017       3           0
#>  9 Alberts Landing  2018       6           1
#> 10 Alberts Landing  2019       3           0
#> # ℹ 354 more rows

The anlz_entpep() function includes an optional
arguments for the threshold (thr). The default values are
104 cfu/100 mL, which can easily be changed. Here we use a threshold of
50 cfu/100 mL.

anlz_entpep(entdat, thr = 50)
#> # A tibble: 364 × 4
#>    Name               yr samples exceedances
#>    <chr>           <dbl>   <int>       <int>
#>  1 Alberts Landing  2010       3           0
#>  2 Alberts Landing  2011       3           0
#>  3 Alberts Landing  2012       4           0
#>  4 Alberts Landing  2013       3           0
#>  5 Alberts Landing  2014       4           0
#>  6 Alberts Landing  2015       3           0
#>  7 Alberts Landing  2016       5           0
#>  8 Alberts Landing  2017       3           0
#>  9 Alberts Landing  2018       6           1
#> 10 Alberts Landing  2019       3           0
#> # ℹ 354 more rows
…
